sim_check/tb.vcd
$date
	Thu Jun 18 23:00:05 2026
$end
$version
	ModelSim Version 10.5
$end
$timescale
	1ps
$end

$scope module tb $end
$var parameter 32 ! ALL_LENGTH $end
$var reg 1 " clk130 $end
$var reg 1 # fmc_clk $end
$var reg 1 $ rst_n $end
$var reg 16 % adc [15:0] $end
$var reg 1 & cs $end
$var reg 1 ' rs $end
$var reg 1 ( wr $end
$var reg 1 ) rd $end
$var reg 16 * sd_drive [15:0] $end
$var reg 1 + sd_oe $end
$var wire 1 , SD [15] $end
$var wire 1 - SD [14] $end
$var wire 1 . SD [13] $end
$var wire 1 / SD [12] $end
$var wire 1 0 SD [11] $end
$var wire 1 1 SD [10] $end
$var wire 1 2 SD [9] $end
$var wire 1 3 SD [8] $end
$var wire 1 4 SD [7] $end
$var wire 1 5 SD [6] $end
$var wire 1 6 SD [5] $end
$var wire 1 7 SD [4] $end
$var wire 1 8 SD [3] $end
$var wire 1 9 SD [2] $end
$var wire 1 : SD [1] $end
$var wire 1 ; SD [0] $end
$var integer 32 < i $end
$var integer 32 = state $end
$var reg 16 > addr1 [15:0] $end
$var reg 16 ? a2 [15:0] $end
$var reg 16 @ a3 [15:0] $end
$var integer 32 A got $end
$var integer 32 B k $end
$var integer 32 C errors $end
$var reg 16 D mem0 [15:0] $end
$var reg 16 E mem1 [15:0] $end

$scope task fmc_wr_addr $end
$var reg 16 F val [15:0] $end
$upscope $end

$scope task fmc_rd_data $end
$var reg 16 G data [15:0] $end
$upscope $end

$scope module dut $end
$var parameter 32 H ALL_LENGTH $end
$var parameter 11 I FIRST_SAMPLE_NUM $end
$var parameter 11 J LAST_SAMPLE_NUM $end
$var parameter 11 K INVALID_NUM $end
$var parameter 11 L LAST_READ_COUNT $end
$var wire 1 M FIFO_IN_CLK $end
$var wire 1 N FMC_CLK $end
$var wire 1 O rst_n $end
$var wire 1 P CS $end
$var wire 1 Q RS $end
$var wire 1 R WR $end
$var wire 1 S RD $end
$var wire 1 , SD [15] $end
$var wire 1 - SD [14] $end
$var wire 1 . SD [13] $end
$var wire 1 / SD [12] $end
$var wire 1 0 SD [11] $end
$var wire 1 1 SD [10] $end
$var wire 1 2 SD [9] $end
$var wire 1 3 SD [8] $end
$var wire 1 4 SD [7] $end
$var wire 1 5 SD [6] $end
$var wire 1 6 SD [5] $end
$var wire 1 7 SD [4] $end
$var wire 1 8 SD [3] $end
$var wire 1 9 SD [2] $end
$var wire 1 : SD [1] $end
$var wire 1 ; SD [0] $end
$var wire 1 T ADC_A_IN [15] $end
$var wire 1 U ADC_A_IN [14] $end
$var wire 1 V ADC_A_IN [13] $end
$var wire 1 W ADC_A_IN [12] $end
$var wire 1 X ADC_A_IN [11] $end
$var wire 1 Y ADC_A_IN [10] $end
$var wire 1 Z ADC_A_IN [9] $end
$var wire 1 [ ADC_A_IN [8] $end
$var wire 1 \ ADC_A_IN [7] $end
$var wire 1 ] ADC_A_IN [6] $end
$var wire 1 ^ ADC_A_IN [5] $end
$var wire 1 _ ADC_A_IN [4] $end
$var wire 1 ` ADC_A_IN [3] $end
$var wire 1 a ADC_A_IN [2] $end
$var wire 1 b ADC_A_IN [1] $end
$var wire 1 c ADC_A_IN [0] $end
$var wire 1 d WR_ADDR1 $end
$var wire 1 e WR_ADDR2 $end
$var wire 1 f WR_ADDR3 $end
$var reg 16 g FIFO_IN [15:0] $end
$var wire 1 h FIFO_OUT [15] $end
$var wire 1 i FIFO_OUT [14] $end
$var wire 1 j FIFO_OUT [13] $end
$var wire 1 k FIFO_OUT [12] $end
$var wire 1 l FIFO_OUT [11] $end
$var wire 1 m FIFO_OUT [10] $end
$var wire 1 n FIFO_OUT [9] $end
$var wire 1 o FIFO_OUT [8] $end
$var wire 1 p FIFO_OUT [7] $end
$var wire 1 q FIFO_OUT [6] $end
$var wire 1 r FIFO_OUT [5] $end
$var wire 1 s FIFO_OUT [4] $end
$var wire 1 t FIFO_OUT [3] $end
$var wire 1 u FIFO_OUT [2] $end
$var wire 1 v FIFO_OUT [1] $end
$var wire 1 w FIFO_OUT [0] $end
$var reg 1 x read_over $end
$var wire 1 y can_read $end
$var reg 1 z can_read_d $end
$var wire 1 { can_read_rise $end
$var reg 11 | read_count [10:0] $end
$var reg 11 } sample_num [10:0] $end
$var wire 1 ~ fmc_det [15] $end
$var wire 1 !! fmc_det [14] $end
$var wire 1 "! fmc_det [13] $end
$var wire 1 #! fmc_det [12] $end
$var wire 1 $! fmc_det [11] $end
$var wire 1 %! fmc_det [10] $end
$var wire 1 &! fmc_det [9] $end
$var wire 1 '! fmc_det [8] $end
$var wire 1 (! fmc_det [7] $end
$var wire 1 )! fmc_det [6] $end
$var wire 1 *! fmc_det [5] $end
$var wire 1 +! fmc_det [4] $end
$var wire 1 ,! fmc_det [3] $end
$var wire 1 -! fmc_det [2] $end
$var wire 1 .! fmc_det [1] $end
$var wire 1 /! fmc_det [0] $end
$var wire 1 0! fmc_num [15] $end
$var wire 1 1! fmc_num [14] $end
$var wire 1 2! fmc_num [13] $end
$var wire 1 3! fmc_num [12] $end
$var wire 1 4! fmc_num [11] $end
$var wire 1 5! fmc_num [10] $end
$var wire 1 6! fmc_num [9] $end
$var wire 1 7! fmc_num [8] $end
$var wire 1 8! fmc_num [7] $end
$var wire 1 9! fmc_num [6] $end
$var wire 1 :! fmc_num [5] $end
$var wire 1 ;! fmc_num [4] $end
$var wire 1 <! fmc_num [3] $end
$var wire 1 =! fmc_num [2] $end
$var wire 1 >! fmc_num [1] $end
$var wire 1 ?! fmc_num [0] $end

$scope module my_fifo_inst $end
$var parameter 32 @! FIFO_LENGTH $end
$var parameter 11 A! WRITE_LAST $end
$var wire 1 M Sys_clk_in $end
$var wire 1 R Sys_clk_out $end
$var wire 1 O Sys_rst_n $end
$var wire 1 B! IN_DATA [15] $end
$var wire 1 C! IN_DATA [14] $end
$var wire 1 D! IN_DATA [13] $end
$var wire 1 E! IN_DATA [12] $end
$var wire 1 F! IN_DATA [11] $end
$var wire 1 G! IN_DATA [10] $end
$var wire 1 H! IN_DATA [9] $end
$var wire 1 I! IN_DATA [8] $end
$var wire 1 J! IN_DATA [7] $end
$var wire 1 K! IN_DATA [6] $end
$var wire 1 L! IN_DATA [5] $end
$var wire 1 M! IN_DATA [4] $end
$var wire 1 N! IN_DATA [3] $end
$var wire 1 O! IN_DATA [2] $end
$var wire 1 P! IN_DATA [1] $end
$var wire 1 Q! IN_DATA [0] $end
$var wire 1 h OUT_DATA [15] $end
$var wire 1 i OUT_DATA [14] $end
$var wire 1 j OUT_DATA [13] $end
$var wire 1 k OUT_DATA [12] $end
$var wire 1 l OUT_DATA [11] $end
$var wire 1 m OUT_DATA [10] $end
$var wire 1 n OUT_DATA [9] $end
$var wire 1 o OUT_DATA [8] $end
$var wire 1 p OUT_DATA [7] $end
$var wire 1 q OUT_DATA [6] $end
$var wire 1 r OUT_DATA [5] $end
$var wire 1 s OUT_DATA [4] $end
$var wire 1 t OUT_DATA [3] $end
$var wire 1 u OUT_DATA [2] $end
$var wire 1 v OUT_DATA [1] $end
$var wire 1 w OUT_DATA [0] $end
$var wire 1 R! read_over $end
$var wire 1 d WR_ADDR1 $end
$var wire 1 e WR_ADDR2 $end
$var reg 1 S! can_read $end
$var wire 1 T! sys_rst $end
$var reg 11 U! wr_count [10:0] $end
$var reg 1 V! write_done $end
$var wire 1 W! wrfull $end
$var wire 1 X! almost_full $end
$var wire 1 Y! rdempty $end
$var wire 1 Z! almost_empty $end
$var wire 1 [! out_data_i [15] $end
$var wire 1 \! out_data_i [14] $end
$var wire 1 ]! out_data_i [13] $end
$var wire 1 ^! out_data_i [12] $end
$var wire 1 _! out_data_i [11] $end
$var wire 1 `! out_data_i [10] $end
$var wire 1 a! out_data_i [9] $end
$var wire 1 b! out_data_i [8] $end
$var wire 1 c! out_data_i [7] $end
$var wire 1 d! out_data_i [6] $end
$var wire 1 e! out_data_i [5] $end
$var wire 1 f! out_data_i [4] $end
$var wire 1 g! out_data_i [3] $end
$var wire 1 h! out_data_i [2] $end
$var wire 1 i! out_data_i [1] $end
$var wire 1 j! out_data_i [0] $end
$var wire 1 k! wrreq $end
$var reg 1 l! write_done_d1 $end
$var reg 1 m! write_done_d2 $end
$var reg 11 n! rd_count [10:0] $end
$var wire 1 o! rdreq $end
$var wire 1 p! unused_wr_addr1 $end
$var wire 1 q! unused_almost_full $end
$var wire 1 r! unused_almost_empty $end

$scope module fifo_inst $end
$var parameter 32 s! ADDR_WIDTH $end
$var parameter 32 t! DATA_WIDTH $end
$var parameter 32 u! OUT_REG $end
$var parameter 40 v! RST_TYPE $end
$var parameter 80 w! FIFO_TYPE $end
$var parameter 32 x! ALMOST_FULL_NUM $end
$var parameter 32 y! ALMOST_EMPTY_NUM $end
$var wire 1 B! wr_data [15] $end
$var wire 1 C! wr_data [14] $end
$var wire 1 D! wr_data [13] $end
$var wire 1 E! wr_data [12] $end
$var wire 1 F! wr_data [11] $end
$var wire 1 G! wr_data [10] $end
$var wire 1 H! wr_data [9] $end
$var wire 1 I! wr_data [8] $end
$var wire 1 J! wr_data [7] $end
$var wire 1 K! wr_data [6] $end
$var wire 1 L! wr_data [5] $end
$var wire 1 M! wr_data [4] $end
$var wire 1 N! wr_data [3] $end
$var wire 1 O! wr_data [2] $end
$var wire 1 P! wr_data [1] $end
$var wire 1 Q! wr_data [0] $end
$var wire 1 k! wr_en $end
$var wire 1 M wr_clk $end
$var wire 1 z! wr_rst $end
$var wire 1 W! full $end
$var wire 1 X! almost_full $end
$var wire 1 [! rd_data [15] $end
$var wire 1 \! rd_data [14] $end
$var wire 1 ]! rd_data [13] $end
$var wire 1 ^! rd_data [12] $end
$var wire 1 _! rd_data [11] $end
$var wire 1 `! rd_data [10] $end
$var wire 1 a! rd_data [9] $end
$var wire 1 b! rd_data [8] $end
$var wire 1 c! rd_data [7] $end
$var wire 1 d! rd_data [6] $end
$var wire 1 e! rd_data [5] $end
$var wire 1 f! rd_data [4] $end
$var wire 1 g! rd_data [3] $end
$var wire 1 h! rd_data [2] $end
$var wire 1 i! rd_data [1] $end
$var wire 1 j! rd_data [0] $end
$var wire 1 o! rd_en $end
$var wire 1 R rd_clk $end
$var wire 1 {! rd_rst $end
$var wire 1 Y! empty $end
$var wire 1 Z! almost_empty $end

$scope module u_ipm_distributed_fifo_fifo $end
$var parameter 32 |! ADDR_WIDTH $end
$var parameter 32 }! DATA_WIDTH $end
$var parameter 40 ~! RST_TYPE $end
$var parameter 32 !" OUT_REG $end
$var parameter 80 "" FIFO_TYPE $end
$var parameter 32 #" ALMOST_FULL_NUM $end
$var parameter 32 $" ALMOST_EMPTY_NUM $end
$var wire 1 B! wr_data [15] $end
$var wire 1 C! wr_data [14] $end
$var wire 1 D! wr_data [13] $end
$var wire 1 E! wr_data [12] $end
$var wire 1 F! wr_data [11] $end
$var wire 1 G! wr_data [10] $end
$var wire 1 H! wr_data [9] $end
$var wire 1 I! wr_data [8] $end
$var wire 1 J! wr_data [7] $end
$var wire 1 K! wr_data [6] $end
$var wire 1 L! wr_data [5] $end
$var wire 1 M! wr_data [4] $end
$var wire 1 N! wr_data [3] $end
$var wire 1 O! wr_data [2] $end
$var wire 1 P! wr_data [1] $end
$var wire 1 Q! wr_data [0] $end
$var wire 1 k! wr_en $end
$var wire 1 M wr_clk $end
$var wire 1 W! full $end
$var wire 1 z! wr_rst $end
$var wire 1 X! almost_full $end
$var wire 1 %" wr_water_level [10] $end
$var wire 1 &" wr_water_level [9] $end
$var wire 1 '" wr_water_level [8] $end
$var wire 1 (" wr_water_level [7] $end
$var wire 1 )" wr_water_level [6] $end
$var wire 1 *" wr_water_level [5] $end
$var wire 1 +" wr_water_level [4] $end
$var wire 1 ," wr_water_level [3] $end
$var wire 1 -" wr_water_level [2] $end
$var wire 1 ." wr_water_level [1] $end
$var wire 1 /" wr_water_level [0] $end
$var wire 1 [! rd_data [15] $end
$var wire 1 \! rd_data [14] $end
$var wire 1 ]! rd_data [13] $end
$var wire 1 ^! rd_data [12] $end
$var wire 1 _! rd_data [11] $end
$var wire 1 `! rd_data [10] $end
$var wire 1 a! rd_data [9] $end
$var wire 1 b! rd_data [8] $end
$var wire 1 c! rd_data [7] $end
$var wire 1 d! rd_data [6] $end
$var wire 1 e! rd_data [5] $end
$var wire 1 f! rd_data [4] $end
$var wire 1 g! rd_data [3] $end
$var wire 1 h! rd_data [2] $end
$var wire 1 i! rd_data [1] $end
$var wire 1 j! rd_data [0] $end
$var wire 1 o! rd_en $end
$var wire 1 R rd_clk $end
$var wire 1 Y! empty $end
$var wire 1 {! rd_rst $end
$var wire 1 Z! almost_empty $end
$var wire 1 0" rd_water_level [10] $end
$var wire 1 1" rd_water_level [9] $end
$var wire 1 2" rd_water_level [8] $end
$var wire 1 3" rd_water_level [7] $end
$var wire 1 4" rd_water_level [6] $end
$var wire 1 5" rd_water_level [5] $end
$var wire 1 6" rd_water_level [4] $end
$var wire 1 7" rd_water_level [3] $end
$var wire 1 8" rd_water_level [2] $end
$var wire 1 9" rd_water_level [1] $end
$var wire 1 :" rd_water_level [0] $end
$var wire 1 ;" wr_addr [9] $end
$var wire 1 <" wr_addr [8] $end
$var wire 1 =" wr_addr [7] $end
$var wire 1 >" wr_addr [6] $end
$var wire 1 ?" wr_addr [5] $end
$var wire 1 @" wr_addr [4] $end
$var wire 1 A" wr_addr [3] $end
$var wire 1 B" wr_addr [2] $end
$var wire 1 C" wr_addr [1] $end
$var wire 1 D" wr_addr [0] $end
$var wire 1 E" rd_addr [9] $end
$var wire 1 F" rd_addr [8] $end
$var wire 1 G" rd_addr [7] $end
$var wire 1 H" rd_addr [6] $end
$var wire 1 I" rd_addr [5] $end
$var wire 1 J" rd_addr [4] $end
$var wire 1 K" rd_addr [3] $end
$var wire 1 L" rd_addr [2] $end
$var wire 1 M" rd_addr [1] $end
$var wire 1 N" rd_addr [0] $end
$var wire 1 O" wr_en_real $end

$scope module ipm_distributed_sdpram_fifo $end
$var parameter 32 P" ADDR_WIDTH $end
$var parameter 32 Q" DATA_WIDTH $end
$var parameter 40 R" RST_TYPE $end
$var parameter 32 S" OUT_REG $end
$var parameter 32 T" INIT_FILE $end
$var parameter 24 U" FILE_FORMAT $end
$var wire 1 B! wr_data [15] $end
$var wire 1 C! wr_data [14] $end
$var wire 1 D! wr_data [13] $end
$var wire 1 E! wr_data [12] $end
$var wire 1 F! wr_data [11] $end
$var wire 1 G! wr_data [10] $end
$var wire 1 H! wr_data [9] $end
$var wire 1 I! wr_data [8] $end
$var wire 1 J! wr_data [7] $end
$var wire 1 K! wr_data [6] $end
$var wire 1 L! wr_data [5] $end
$var wire 1 M! wr_data [4] $end
$var wire 1 N! wr_data [3] $end
$var wire 1 O! wr_data [2] $end
$var wire 1 P! wr_data [1] $end
$var wire 1 Q! wr_data [0] $end
$var wire 1 ;" wr_addr [9] $end
$var wire 1 <" wr_addr [8] $end
$var wire 1 =" wr_addr [7] $end
$var wire 1 >" wr_addr [6] $end
$var wire 1 ?" wr_addr [5] $end
$var wire 1 @" wr_addr [4] $end
$var wire 1 A" wr_addr [3] $end
$var wire 1 B" wr_addr [2] $end
$var wire 1 C" wr_addr [1] $end
$var wire 1 D" wr_addr [0] $end
$var wire 1 E" rd_addr [9] $end
$var wire 1 F" rd_addr [8] $end
$var wire 1 G" rd_addr [7] $end
$var wire 1 H" rd_addr [6] $end
$var wire 1 I" rd_addr [5] $end
$var wire 1 J" rd_addr [4] $end
$var wire 1 K" rd_addr [3] $end
$var wire 1 L" rd_addr [2] $end
$var wire 1 M" rd_addr [1] $end
$var wire 1 N" rd_addr [0] $end
$var wire 1 M wr_clk $end
$var wire 1 R rd_clk $end
$var wire 1 O" wr_en $end
$var wire 1 {! rst $end
$var wire 1 [! rd_data [15] $end
$var wire 1 \! rd_data [14] $end
$var wire 1 ]! rd_data [13] $end
$var wire 1 ^! rd_data [12] $end
$var wire 1 _! rd_data [11] $end
$var wire 1 `! rd_data [10] $end
$var wire 1 a! rd_data [9] $end
$var wire 1 b! rd_data [8] $end
$var wire 1 c! rd_data [7] $end
$var wire 1 d! rd_data [6] $end
$var wire 1 e! rd_data [5] $end
$var wire 1 f! rd_data [4] $end
$var wire 1 g! rd_data [3] $end
$var wire 1 h! rd_data [2] $end
$var wire 1 i! rd_data [1] $end
$var wire 1 j! rd_data [0] $end
$var wire 1 V" asyn_rst $end
$var wire 1 W" syn_rst $end
$var wire 1 X" q [15] $end
$var wire 1 Y" q [14] $end
$var wire 1 Z" q [13] $end
$var wire 1 [" q [12] $end
$var wire 1 \" q [11] $end
$var wire 1 ]" q [10] $end
$var wire 1 ^" q [9] $end
$var wire 1 _" q [8] $end
$var wire 1 `" q [7] $end
$var wire 1 a" q [6] $end
$var wire 1 b" q [5] $end
$var wire 1 c" q [4] $end
$var wire 1 d" q [3] $end
$var wire 1 e" q [2] $end
$var wire 1 f" q [1] $end
$var wire 1 g" q [0] $end
$var reg 16 h" q_reg [15:0] $end
$var integer 32 i" i $end

$scope begin genblk2 $end
$upscope $end

$scope begin genblk1 $end
$upscope $end
$upscope $end

$scope module u_ipm_distributed_fifo_ctr_fifo $end
$var parameter 32 j" DEPTH $end
$var parameter 80 k" FIFO_TYPE $end
$var parameter 32 l" ALMOST_FULL_NUM $end
$var parameter 32 m" ALMOST_EMPTY_NUM $end
$var wire 1 M wr_clk $end
$var wire 1 k! w_en $end
$var wire 1 ;" wr_addr [9] $end
$var wire 1 <" wr_addr [8] $end
$var wire 1 =" wr_addr [7] $end
$var wire 1 >" wr_addr [6] $end
$var wire 1 ?" wr_addr [5] $end
$var wire 1 @" wr_addr [4] $end
$var wire 1 A" wr_addr [3] $end
$var wire 1 B" wr_addr [2] $end
$var wire 1 C" wr_addr [1] $end
$var wire 1 D" wr_addr [0] $end
$var wire 1 z! wrst $end
$var wire 1 W! wfull $end
$var wire 1 X! almost_full $end
$var reg 11 n" wr_water_level [10:0] $end
$var wire 1 R rd_clk $end
$var wire 1 o! r_en $end
$var wire 1 E" rd_addr [9] $end
$var wire 1 F" rd_addr [8] $end
$var wire 1 G" rd_addr [7] $end
$var wire 1 H" rd_addr [6] $end
$var wire 1 I" rd_addr [5] $end
$var wire 1 J" rd_addr [4] $end
$var wire 1 K" rd_addr [3] $end
$var wire 1 L" rd_addr [2] $end
$var wire 1 M" rd_addr [1] $end
$var wire 1 N" rd_addr [0] $end
$var wire 1 {! rrst $end
$var wire 1 Y! rempty $end
$var wire 1 Z! almost_empty $end
$var reg 11 o" rd_water_level [10:0] $end
$var reg 11 p" wptr [10:0] $end
$var reg 11 q" wrptr1 [10:0] $end
$var reg 11 r" wrptr2 [10:0] $end
$var reg 11 s" wbin [10:0] $end
$var reg 11 t" wbnext [10:0] $end
$var reg 11 u" wgnext [10:0] $end
$var reg 1 v" waddr_msb $end
$var wire 1 w" wgnext_2ndmsb $end
$var wire 1 x" wrptr2_2ndmsb $end
$var reg 11 y" rptr [10:0] $end
$var reg 11 z" rwptr1 [10:0] $end
$var reg 11 {" rwptr2 [10:0] $end
$var reg 11 |" rbin [10:0] $end
$var reg 11 }" rbnext [10:0] $end
$var reg 11 ~" rgnext [10:0] $end
$var reg 1 !# raddr_msb $end
$var reg 11 "# wrptr2_b [10:0] $end
$var reg 11 ## rwptr2_b [10:0] $end
$var reg 1 $# asyn_wfull $end
$var reg 1 %# asyn_almost_full $end
$var reg 1 &# asyn_rempty $end
$var reg 1 '# asyn_almost_empty $end
$var reg 1 (# syn_wfull $end
$var reg 1 )# syn_almost_full $end
$var reg 1 *# syn_rempty $end
$var reg 1 +# syn_almost_empty $end

$scope begin ASYN_CTRL $end
$var integer 32 ,# i $end
$var integer 32 -# j $end
$upscope $end
$upscope $end
$upscope $end
$upscope $end
$upscope $end

$scope module fmc_inst $end
$var wire 1 N CLK_IN $end
$var wire 1 O Rst_n $end
$var wire 1 P CS $end
$var wire 1 Q RS $end
$var wire 1 R WR $end
$var wire 1 S RD $end
$var wire 1 , SD [15] $end
$var wire 1 - SD [14] $end
$var wire 1 . SD [13] $end
$var wire 1 / SD [12] $end
$var wire 1 0 SD [11] $end
$var wire 1 1 SD [10] $end
$var wire 1 2 SD [9] $end
$var wire 1 3 SD [8] $end
$var wire 1 4 SD [7] $end
$var wire 1 5 SD [6] $end
$var wire 1 6 SD [5] $end
$var wire 1 7 SD [4] $end
$var wire 1 8 SD [3] $end
$var wire 1 9 SD [2] $end
$var wire 1 : SD [1] $end
$var wire 1 ; SD [0] $end
$var wire 1 d WR_ADDR1 $end
$var wire 1 e WR_ADDR2 $end
$var wire 1 f WR_ADDR3 $end
$var wire 1 ~ FMC_DET [15] $end
$var wire 1 !! FMC_DET [14] $end
$var wire 1 "! FMC_DET [13] $end
$var wire 1 #! FMC_DET [12] $end
$var wire 1 $! FMC_DET [11] $end
$var wire 1 %! FMC_DET [10] $end
$var wire 1 &! FMC_DET [9] $end
$var wire 1 '! FMC_DET [8] $end
$var wire 1 (! FMC_DET [7] $end
$var wire 1 )! FMC_DET [6] $end
$var wire 1 *! FMC_DET [5] $end
$var wire 1 +! FMC_DET [4] $end
$var wire 1 ,! FMC_DET [3] $end
$var wire 1 -! FMC_DET [2] $end
$var wire 1 .! FMC_DET [1] $end
$var wire 1 /! FMC_DET [0] $end
$var wire 1 h FMC_IN [15] $end
$var wire 1 i FMC_IN [14] $end
$var wire 1 j FMC_IN [13] $end
$var wire 1 k FMC_IN [12] $end
$var wire 1 l FMC_IN [11] $end
$var wire 1 m FMC_IN [10] $end
$var wire 1 n FMC_IN [9] $end
$var wire 1 o FMC_IN [8] $end
$var wire 1 p FMC_IN [7] $end
$var wire 1 q FMC_IN [6] $end
$var wire 1 r FMC_IN [5] $end
$var wire 1 s FMC_IN [4] $end
$var wire 1 t FMC_IN [3] $end
$var wire 1 u FMC_IN [2] $end
$var wire 1 v FMC_IN [1] $end
$var wire 1 w FMC_IN [0] $end
$var wire 1 0! FMC_NUM [15] $end
$var wire 1 1! FMC_NUM [14] $end
$var wire 1 2! FMC_NUM [13] $end
$var wire 1 3! FMC_NUM [12] $end
$var wire 1 4! FMC_NUM [11] $end
$var wire 1 5! FMC_NUM [10] $end
$var wire 1 6! FMC_NUM [9] $end
$var wire 1 7! FMC_NUM [8] $end
$var wire 1 8! FMC_NUM [7] $end
$var wire 1 9! FMC_NUM [6] $end
$var wire 1 :! FMC_NUM [5] $end
$var wire 1 ;! FMC_NUM [4] $end
$var wire 1 <! FMC_NUM [3] $end
$var wire 1 =! FMC_NUM [2] $end
$var wire 1 >! FMC_NUM [1] $end
$var wire 1 ?! FMC_NUM [0] $end
$var reg 16 .# ADDR [15:0] $end
$var reg 16 /# RD_DATA [15:0] $end
$var reg 16 0# ADDR0_DATA [15:0] $end
$var reg 16 1# ADDR1_DATA [15:0] $end
$var reg 16 2# ADDR2_DATA [15:0] $end
$var reg 16 3# ADDR3_DATA [15:0] $end
$var wire 1 4# addr_write $end
$var wire 1 5# data_write $end
$var wire 1 6# unused_clk_in $end
$upscope $end
$upscope $end
$upscope $end
$enddefinitions $end
#0
$dumpvars
0"
0#
0$
b1000000000000 %
1&
0'
1(
1)
b0 *
0+
b0 g
0x
0z
b0 |
b0 }
0S!
b0 U!
0V!
0l!
0m!
b0 n!
b0 h"
b0 n"
b0 o"
b0 p"
b0 q"
b0 r"
b0 s"
b0 t"
b0 u"
0v"
b0 y"
b0 z"
b0 {"
b0 |"
b0 }"
b0 ~"
0!#
b0 "#
b0 ##
0$#
0%#
1&#
1'#
x(#
x)#
x*#
x+#
b0 .#
b0 /#
b0 0#
b0 1#
b0 2#
b0 3#
bx F
bx G
bx >
bx ?
bx @
bx D
bx E
b10000 !
b10000 H
b100 I
b10011 J
b10100 K
b1111 L
b10000 @!
b1111 A!
b1010 s!
b10000 t!
b0 u!
b1111111111 x!
b100 y!
b1010 |!
b10000 }!
b0 !"
b1111111111 #"
b100 $"
b1010 P"
b10000 Q"
b0 S"
b1010 j"
b1111111111 l"
b100 m"
b100000101010011010110010100111001000011 v!
b1000001010100110101100101001110010000110101111101000110010010010100011001001111 w!
b100000101010011010110010100111001000011 ~!
b1000001010100110101100101001110010000110101111101000110010010010100011001001111 ""
b100000101010011010110010100111001000011 R"
b1001110010011110100111001000101 T"
b10000100100100101001110 U"
b1000001010100110101100101001110010000110101111101000110010010010100011001001111 k"
b10000000000 i"
b1011 ,#
b1011 -#
bx <
bx =
bx A
bx B
bx C
z;
z:
z9
z8
z7
z6
z5
z4
z3
z2
z1
z0
z/
z.
z-
z,
0d
0e
0f
0w
0v
0u
0t
0s
0r
0q
0p
0o
0n
0m
0l
0k
0j
0i
0h
0y
0{
0/!
0.!
0-!
0,!
0+!
0*!
0)!
0(!
0'!
0&!
0%!
0$!
0#!
0"!
0!!
0~
0?!
0>!
0=!
0<!
0;!
0:!
09!
08!
07!
06!
05!
04!
03!
02!
01!
00!
0T!
0W!
0X!
1Y!
1Z!
0j!
0i!
0h!
0g!
0f!
0e!
0d!
0c!
0b!
0a!
0`!
0_!
0^!
0]!
0\!
0[!
0k!
0o!
0D"
0C"
0B"
0A"
0@"
0?"
0>"
0="
0<"
0;"
0N"
0M"
0L"
0K"
0J"
0I"
0H"
0G"
0F"
0E"
0O"
1V"
0W"
0g"
0f"
0e"
0d"
0c"
0b"
0a"
0`"
0_"
0^"
0]"
0\"
0["
0Z"
0Y"
0X"
0w"
0x"
0p!
0q!
1r!
04#
05#
06#
0c
0b
0a
0`
0_
0^
0]
0\
0[
0Z
0Y
0X
1W
0V
0U
0T
1S
1R
0Q
1P
0O
0N
0M
0R!
0Q!
0P!
0O!
0N!
0M!
0L!
0K!
0J!
0I!
0H!
0G!
0F!
0E!
0D!
0C!
0B!
1{!
1z!
0/"
0."
0-"
0,"
0+"
0*"
0)"
0("
0'"
0&"
0%"
0:"
09"
08"
07"
06"
05"
04"
03"
02"
01"
00"
$end
#3846
1"
1M
#7692
0"
0M
#10000
1#
1N
16#
#11538
1"
1M
#15384
0"
0M
#19230
1"
1M
#20000
0#
0N
06#
#23076
0"
0M
#26922
1"
1M
#30000
1#
1N
16#
#30768
0"
0M
#34614
1"
1M
#38460
0"
0M
#40000
0#
0N
06#
#42306
1"
1M
#46152
0"
0M
#49998
1"
1M
#50000
1#
1N
16#
#53844
0"
0M
#57690
1"
1M
#60000
0#
0N
06#
#61536
0"
0M
#65382
1"
1M
#69228
0"
0M
#70000
1#
1N
16#
#73074
1"
1M
#76920
0"
0M
#80000
0#
0N
06#
#80766
1"
1M
#84612
0"
0M
#88458
1"
1M
#90000
1#
1N
16#
#92304
0"
0M
#96150
1"
1M
#99996
0"
0M
#100000
0#
0N
06#
#103000
1$
1O
1T!
1k!
0z!
0{!
1O"
0V"
b1 t"
b1 u"
#103842
1"
1M
b1 p"
b1 n"
b1 U!
b1000000000000 g
b1000000000001 %
1c
1E!
1/"
1D"
b0 ,#
b1 s"
b1 ,#
b10 ,#
b11 ,#
b100 ,#
b101 ,#
b110 ,#
b111 ,#
b1000 ,#
b1001 ,#
b1010 ,#
b1011 ,#
b10 t"
b11 u"
#107688
0"
0M
#110000
1#
1N
16#
#111534
1"
1M
b1000000000001 g
b10 U!
b10 n"
b11 p"
b1000000000010 %
0c
1b
1C"
0/"
1."
1Q!
b0 ,#
b0 s"
b1 ,#
b10 s"
b10 ,#
b11 ,#
b100 ,#
b101 ,#
b110 ,#
b111 ,#
b1000 ,#
b1001 ,#
b1010 ,#
b1011 ,#
b11 t"
b10 u"
#115380
0"
0M
#119226
1"
1M
b10 p"
b11 n"
b11 U!
b1000000000010 g
b1000000000011 %
1c
0Q!
1P!
1/"
0D"
b0 ,#
b11 s"
b1 ,#
b10 ,#
b11 ,#
b100 ,#
b101 ,#
b110 ,#
b111 ,#
b1000 ,#
b1001 ,#
b1010 ,#
b1011 ,#
b100 t"
b110 u"
#120000
0#
0N
06#
#123072
0"
0M
#126918
1"
1M
b1000000000011 g
b100 U!
b100 n"
b110 p"
b1000000000100 %
0c
0b
1a
1B"
0/"
0."
1-"
1Q!
b0 ,#
b10 s"
b1 ,#
b0 s"
b10 ,#
b100 s"
b11 ,#
b100 ,#
b101 ,#
b110 ,#
b111 ,#
b1000 ,#
b1001 ,#
b1010 ,#
b1011 ,#
b101 t"
b111 u"
#130000
1#
1N
16#
#130764
0"
0M
#134610
1"
1M
b111 p"
b101 n"
b101 U!
b1000000000100 g
b1000000000101 %
1c
0Q!
0P!
1O!
1/"
1D"
b0 ,#
b101 s"
b1 ,#
b10 ,#
b11 ,#
b100 ,#
b101 ,#
b110 ,#
b111 ,#
b1000 ,#
b1001 ,#
b1010 ,#
b1011 ,#
b110 t"
b101 u"
#138456
0"
0M
#140000
0#
0N
06#
#142302
1"
1M
b1000000000101 g
b110 U!
b110 n"
b101 p"
b1000000000110 %
0c
1b
0C"
0/"
1."
1Q!
b0 ,#
b100 s"
b1 ,#
b110 s"
b10 ,#
b11 ,#
b100 ,#
b101 ,#
b110 ,#
b111 ,#
b1000 ,#
b1001 ,#
b1010 ,#
b1011 ,#
b111 t"
b100 u"
#146148
0"
0M
#149994
1"
1M
b100 p"
b111 n"
b111 U!
b1000000000110 g
b1000000000111 %
1c
0Q!
1P!
1/"
0D"
b0 ,#
b111 s"
b1 ,#
b10 ,#
b11 ,#
b100 ,#
b101 ,#
b110 ,#
b111 ,#
b1000 ,#
b1001 ,#
b1010 ,#
b1011 ,#
b1000 t"
b1100 u"
#150000
1#
1N
16#
#153840
0"
0M
