sim_check/tb_reg1.vcd
$date
	Sat Jun 20 15:50:35 2026
$end
$version
	ModelSim Version 10.5
$end
$timescale
	1ps
$end

$scope module tb $end
$var reg 1 ! clk130 $end
$var reg 1 " fmc_clk $end
$var reg 1 # rst_n $end
$var reg 1 $ cs $end
$var reg 1 % rs $end
$var reg 1 & wr $end
$var reg 1 ' rd $end
$var wire 1 ( SD [15] $end
$var wire 1 ) SD [14] $end
$var wire 1 * SD [13] $end
$var wire 1 + SD [12] $end
$var wire 1 , SD [11] $end
$var wire 1 - SD [10] $end
$var wire 1 . SD [9] $end
$var wire 1 / SD [8] $end
$var wire 1 0 SD [7] $end
$var wire 1 1 SD [6] $end
$var wire 1 2 SD [5] $end
$var wire 1 3 SD [4] $end
$var wire 1 4 SD [3] $end
$var wire 1 5 SD [2] $end
$var wire 1 6 SD [1] $end
$var wire 1 7 SD [0] $end
$var reg 16 8 adc [15:0] $end
$var integer 32 9 state $end

$scope module dut $end
$var wire 1 : can_read $end
$var reg 11 ; sample_num [10:0] $end
$var reg 11 < read_count [10:0] $end
$var wire 1 = FIFO_OUT [15] $end
$var wire 1 > FIFO_OUT [14] $end
$var wire 1 ? FIFO_OUT [13] $end
$var wire 1 @ FIFO_OUT [12] $end
$var wire 1 A FIFO_OUT [11] $end
$var wire 1 B FIFO_OUT [10] $end
$var wire 1 C FIFO_OUT [9] $end
$var wire 1 D FIFO_OUT [8] $end
$var wire 1 E FIFO_OUT [7] $end
$var wire 1 F FIFO_OUT [6] $end
$var wire 1 G FIFO_OUT [5] $end
$var wire 1 H FIFO_OUT [4] $end
$var wire 1 I FIFO_OUT [3] $end
$var wire 1 J FIFO_OUT [2] $end
$var wire 1 K FIFO_OUT [1] $end
$var wire 1 L FIFO_OUT [0] $end

$scope module fmc_inst $end
$var reg 16 M ADDR [15:0] $end
$var reg 16 N RD_DATA [15:0] $end
$var wire 1 O WR_ADDR1 $end
$var wire 1 P WR_ADDR2 $end
$var wire 1 Q WR_ADDR3 $end
$var wire 1 R FMC_DET [15] $end
$var wire 1 S FMC_DET [14] $end
$var wire 1 T FMC_DET [13] $end
$var wire 1 U FMC_DET [12] $end
$var wire 1 V FMC_DET [11] $end
$var wire 1 W FMC_DET [10] $end
$var wire 1 X FMC_DET [9] $end
$var wire 1 Y FMC_DET [8] $end
$var wire 1 Z FMC_DET [7] $end
$var wire 1 [ FMC_DET [6] $end
$var wire 1 \ FMC_DET [5] $end
$var wire 1 ] FMC_DET [4] $end
$var wire 1 ^ FMC_DET [3] $end
$var wire 1 _ FMC_DET [2] $end
$var wire 1 ` FMC_DET [1] $end
$var wire 1 a FMC_DET [0] $end
$upscope $end

$scope module my_fifo_inst $end
$var wire 1 b IN_DATA [15] $end
$var wire 1 c IN_DATA [14] $end
$var wire 1 d IN_DATA [13] $end
$var wire 1 e IN_DATA [12] $end
$var wire 1 f IN_DATA [11] $end
$var wire 1 g IN_DATA [10] $end
$var wire 1 h IN_DATA [9] $end
$var wire 1 i IN_DATA [8] $end
$var wire 1 j IN_DATA [7] $end
$var wire 1 k IN_DATA [6] $end
$var wire 1 l IN_DATA [5] $end
$var wire 1 m IN_DATA [4] $end
$var wire 1 n IN_DATA [3] $end
$var wire 1 o IN_DATA [2] $end
$var wire 1 p IN_DATA [1] $end
$var wire 1 q IN_DATA [0] $end
$var wire 1 r wrreq $end
$var wire 1 s wrfull $end
$var wire 1 t rdreq $end
$var reg 11 u rd_count [10:0] $end
$var reg 11 v wr_count [10:0] $end
$var reg 1 w write_done $end
$upscope $end
$upscope $end
$upscope $end
$enddefinitions $end
#0
$dumpvars
0!
0"
0#
b1000000000000 8
1$
0%
1&
1'
b0 <
b0 ;
b0 v
0w
b0 u
b0 M
b0 N
bx 9
z7
z6
z5
z4
z3
z2
z1
z0
z/
z.
z-
z,
z+
z*
z)
z(
0O
0P
0Q
0L
0K
0J
0I
0H
0G
0F
0E
0D
0C
0B
0A
0@
0?
0>
0=
0:
0a
0`
0_
0^
0]
0\
0[
0Z
0Y
0X
0W
0V
0U
0T
0S
0R
0s
0r
0t
0q
0p
0o
0n
0m
0l
0k
0j
0i
0h
0g
0f
0e
0d
0c
0b
$end
#3846
1!
#7692
0!
#10000
1"
#11538
1!
#15384
0!
#19230
1!
#20000
0"
#23076
0!
#26922
1!
#30000
1"
#30768
0!
#34614
1!
#38460
0!
#40000
0"
#42306
1!
#46152
0!
#49998
1!
#50000
1"
#53844
0!
#57690
1!
#60000
0"
#61536
0!
#65382
1!
#69228
0!
#70000
1"
#73074
1!
#76920
0!
#80000
0"
#80766
1!
#84612
0!
#88458
1!
#90000
1"
#92304
0!
#96150
1!
#99996
0!
#100000
0"
#103000
1#
1r
#103842
1!
b1 v
b1000000000001 8
1e
#107688
0!
#110000
1"
#111534
1!
b10 v
b1000000000010 8
1q
#115380
0!
#119226
1!
b11 v
b1000000000011 8
0q
1p
#120000
0"
#123072
0!
#126918
1!
b100 v
b1000000000100 8
1q
#130000
1"
#130764
0!
#134610
1!
b101 v
b1000000000101 8
0q
0p
1o
#138456
0!
#140000
0"
#142302
1!
b110 v
b1000000000110 8
1q
#146148
0!
#149994
1!
b111 v
b1000000000111 8
0q
1p
#150000
1"
#153840
0!
#157686
1!
b1000 v
b1000000001000 8
1q
#160000
0"
#161532
0!
#165378
1!
b1001 v
b1000000001001 8
0q
0p
0o
1n
#169224
0!
#170000
1"
#173070
1!
b1010 v
b1000000001010 8
1q
#176916
0!
#180000
0"
#180762
1!
b1011 v
b1000000001011 8
0q
1p
#184608
0!
#188454
1!
b1100 v
b1000000001100 8
1q
#190000
1"
#192300
0!
#196146
1!
b1101 v
b1000000001101 8
0q
0p
1o
#199992
0!
#200000
0"
#203838
1!
b1110 v
b1000000001110 8
1q
#207684
0!
#210000
1"
#211530
1!
b1111 v
b1000000001111 8
0q
1p
#215376
0!
#219222
1!
1w
b10000 v
b1000000010000 8
1q
0r
#220000
0"
#223068
0!
#226914
1!
b1000000010001 8
0q
0p
0o
0n
1m
#230000
1"
#230760
0!
#234606
1!
b1000000010010 8
1q
#238452
0!
#240000
0"
#242298
1!
b1000000010011 8
0q
1p
#246144
0!
#249990
1!
b1000000010100 8
1q
#250000
1"
#253836
0!
#257682
1!
b1000000010101 8
0q
0p
1o
#260000
0"
#261528
0!
#265374
1!
b1000000010110 8
1q
#269220
0!
#270000
1"
#273066
1!
b1000000010111 8
0q
1p
#276912
0!
#280000
0"
#280758
1!
b1000000011000 8
1q
#284604
0!
#288450
1!
b1000000011001 8
0q
0p
0o
1n
#290000
1"
#292296
0!
#296142
1!
b1000000011010 8
1q
#299988
0!
#300000
0"
#303834
1!
b1000000011011 8
0q
1p
#307680
0!
#310000
1"
#311526
1!
b1000000011100 8
1q
#315372
0!
#319218
1!
b1000000011101 8
0q
0p
1o
#320000
0"
#323064
0!
#326910
1!
b1000000011110 8
1q
#330000
1"
#330756
0!
#334602
1!
b1000000011111 8
0q
1p
#338448
0!
#340000
0"
#342294
1!
b1000000100000 8
1q
#346140
0!
#349986
1!
b1000000100001 8
0q
0p
0o
0n
0m
1l
#350000
1"
#353832
0!
#357678
1!
b1000000100010 8
1q
#360000
0"
#361524
0!
#365370
1!
b1000000100011 8
0q
1p
#369216
0!
#370000
1"
#373062
1!
b1000000100100 8
1q
#376908
0!
#380000
0"
#380754
1!
b1000000100101 8
0q
0p
1o
#384600
0!
#388446
1!
b1000000100110 8
1q
#390000
1"
#392292
0!
#396138
1!
b1000000100111 8
0q
1p
#399984
0!
#400000
0"
#403830
1!
b1000000101000 8
1q
#407676
0!
#410000
1"
#411522
1!
b1000000101001 8
0q
0p
0o
1n
#415368
0!
#419214
1!
b1000000101010 8
1q
#420000
0"
#423060
0!
#426906
1!
b1000000101011 8
0q
1p
#430000
1"
#430752
0!
#434598
1!
b1000000101100 8
1q
#438444
0!
#440000
0"
#442290
1!
b1000000101101 8
0q
0p
1o
#446136
0!
#449982
1!
b1000000101110 8
1q
#450000
1"
#453828
0!
#457674
1!
b1000000101111 8
0q
1p
#460000
0"
#461520
0!
#465366
1!
b1000000110000 8
1q
#469212
0!
#470000
1"
#473058
1!
b1000000110001 8
0q
0p
0o
0n
1m
#476904
0!
#480000
0"
#480750
1!
b1000000110010 8
1q
#484596
0!
#488442
1!
b1000000110011 8
0q
1p
#490000
1"
#492288
0!
#496134
1!
b1000000110100 8
1q
#499980
0!
#500000
0"
#503826
1!
b1000000110101 8
0q
0p
1o
#507672
0!
#510000
1"
#511518
1!
b1000000110110 8
1q
#515364
0!
#519210
1!
b1000000110111 8
0q
1p
#520000
0"
#523056
0!
#526902
1!
b1000000111000 8
1q
#530000
1"
#530748
0!
#534594
1!
b1000000111001 8
0q
0p
0o
1n
#538440
0!
#540000
0"
#542286
1!
b1000000111010 8
1q
#546132
0!
#549978
1!
b1000000111011 8
0q
1p
#550000
1"
#553824
0!
#557670
1!
b1000000111100 8
1q
#560000
0"
#561516
0!
#565362
1!
b1000000111101 8
0q
0p
1o
#569208
0!
#570000
1"
#573054
1!
b1000000111110 8
1q
#576900
0!
#580000
0"
#580746
1!
b1000000111111 8
0q
1p
#584592
0!
#588438
1!
b1000001000000 8
1q
#590000
1"
#592284
0!
#596130
1!
b1000001000001 8
0q
0p
0o
0n
0m
0l
1k
#599976
0!
#600000
0"
#603822
1!
b1000001000010 8
1q
#607668
0!
#610000
1"
#611514
1!
b1000001000011 8
0q
1p
#615360
0!
#619206
1!
b1000001000100 8
1q
#620000
0"
#623052
0!
#626898
1!
b1000001000101 8
0q
0p
1o
#630000
1"
#630744
0!
#634590
1!
b1000001000110 8
1q
#638436
0!
#640000
0"
#642282
1!
b1000001000111 8
0q
1p
#646128
0!
#649974
1!
b1000001001000 8
1q
#650000
1"
#653820
0!
#657666
1!
b1000001001001 8
0q
0p
0o
1n
#660000
0"
#661512
0!
#665358
1!
b1000001001010 8
1q
#669204
0!
#670000
1"
#673050
1!
b1000001001011 8
0q
1p
#676896
0!
#680000
0"
#680742
1!
b1000001001100 8
1q
#684588
0!
#688434
1!
b1000001001101 8
0q
0p
1o
#690000
1"
#692280
0!
#696126
1!
b1000001001110 8
1q
#699972
0!
#700000
0"
#703818
1!
b1000001001111 8
0q
1p
#707664
0!
#710000
1"
#711510
1!
b1000001010000 8
1q
#715356
0!
#719202
1!
b1000001010001 8
0q
0p
0o
0n
1m
#720000
0"
#723048
0!
#726894
1!
b1000001010010 8
1q
#730000
1"
#730740
0!
#734586
1!
b1000001010011 8
0q
1p
#738432
0!
#740000
0"
#742278
1!
b1000001010100 8
1q
#746124
0!
#749970
1!
b1000001010101 8
0q
0p
1o
#750000
1"
#753816
0!
#757662
1!
b1000001010110 8
1q
#760000
0"
#761508
0!
#765354
1!
b1000001010111 8
0q
1p
#769200
0!
#770000
1"
#773046
1!
b1000001011000 8
1q
#776892
0!
#780000
0"
#780738
1!
b1000001011001 8
0q
0p
0o
1n
#784584
0!
#788430
1!
b1000001011010 8
1q
#790000
1"
#792276
0!
#796122
1!
b1000001011011 8
0q
1p
#799968
0!
#800000
0"
#803814
1!
b1000001011100 8
1q
#807660
0!
#810000
1"
#811506
1!
b1000001011101 8
0q
0p
1o
#815352
0!
#819198
1!
b1000001011110 8
1q
#820000
0"
#823044
0!
#826890
1!
b1000001011111 8
0q
1p
#830000
1"
#830736
0!
#834582
1!
b1000001100000 8
1q
#838428
0!
#840000
0"
#842274
1!
b1000001100001 8
0q
0p
0o
0n
0m
1l
#846120
0!
#849966
1!
b1000001100010 8
1q
#850000
1"
#853812
0!
#857658
1!
b1000001100011 8
0q
1p
#860000
0"
#861504
0!
#865350
1!
b1000001100100 8
1q
#869196
0!
#870000
1"
#873042
1!
b1000001100101 8
0q
0p
1o
#876888
0!
#880000
0"
#880734
1!
b1000001100110 8
1q
#884580
0!
#888426
1!
b1000001100111 8
0q
1p
#890000
1"
#892272
0!
#896118
1!
b1000001101000 8
1q
#899964
0!
#900000
0"
#903000
b1 9
0$
17
06
05
04
03
02
01
00
0/
0.
0-
0,
0+
0*
0)
0(
1O
#903810
1!
b1000001101001 8
0q
0p
0o
1n
#907656
0!
#910000
1"
#911502
1!
b1000001101010 8
1q
#915348
0!
#918000
0&
#919194
1!
b1000001101011 8
0q
1p
#920000
0"
#923040
0!
#926886
1!
b1000001101100 8
1q
#930000
1"
#930732
0!
#934578
1!
b1000001101101 8
0q
0p
1o
#938000
1&
b1 M
#938424
0!
#940000
0"
#942270
1!
b1000001101110 8
1q
#946116
0!
#949962
1!
b1000001101111 8
0q
1p
#950000
1"
#953000
1$
z7
z6
z5
z4
z3
z2
z1
z0
z/
z.
z-
z,
z+
z*
z)
z(
0O
#953808
0!
#957654
1!
b1000001110000 8
1q
#960000
0"
#961500
0!
#963000
0$
1%
0'
07
06
05
04
03
02
01
00
0/
0.
0-
0,
0+
0*
0)
0(
#965346
1!
b1000001110001 8
0q
0p
0o
0n
1m
#969192
0!
#970000
1"
#973038
1!
b1000001110010 8
1q
#976884
0!
#980000
0"
#980730
1!
b1000001110011 8
0q
1p
#984576
0!
#988422
1!
b1000001110100 8
1q
#990000
1"
#992268
0!
#993000
1'
z7
z6
z5
z4
z3
z2
z1
z0
z/
z.
z-
z,
z+
z*
z)
z(
#996114
1!
b1000001110101 8
0q
0p
1o
#999960
0!
#1000000
0"
#1003000
1$
#1003806
1!
b1000001110110 8
1q
#1007652
0!
#1010000
1"
#1011498
1!
b1000001110111 8
0q
1p
#1013000
0$
0%
17
06
05
04
03
02
01
00
0/
0.
0-
0,
0+
0*
0)
0(
1O
#1015344
0!
#1019190
1!
b1000001111000 8
1q
#1020000
0"
#1023036
0!
#1026882
1!
b1000001111001 8
0q
0p
0o
1n
#1028000
0&
#1030000
1"
#1030728
0!
#1034574
1!
b1000001111010 8
1q
#1038420
0!
#1040000
0"
#1042266
1!
b1000001111011 8
0q
1p
#1046112
0!
#1048000
1&
#1049958
1!
b1000001111100 8
1q
#1050000
1"
#1053804
0!
#1057650
1!
b1000001111101 8
0q
0p
1o
#1060000
0"
#1061496
0!
#1063000
1$
z7
z6
z5
z4
z3
z2
z1
z0
z/
z.
z-
z,
z+
z*
z)
z(
0O
#1065342
1!
b1000001111110 8
1q
#1069188
0!
#1070000
1"
#1073000
0$
1%
0'
07
06
05
04
03
02
01
00
0/
0.
0-
0,
0+
0*
0)
0(
#1073034
1!
b1000001111111 8
0q
1p
#1076880
0!
#1080000
0"
#1080726
1!
b1000010000000 8
1q
#1084572
0!
#1088418
1!
b1000010000001 8
0q
0p
0o
0n
0m
0l
0k
1j
#1090000
1"
#1092264
0!
#1096110
1!
b1000010000010 8
1q
#1099956
0!
#1100000
0"
#1103000
1'
z7
z6
z5
z4
z3
z2
z1
z0
z/
z.
z-
z,
z+
z*
z)
z(
#1103802
1!
b1000010000011 8
0q
1p
#1107648
0!
#1110000
1"
#1111494
1!
b1000010000100 8
1q
#1113000
1$
#1115340
0!
#1119186
1!
b1000010000101 8
0q
0p
1o
#1120000
0"
#1123000
0$
0%
17
06
05
04
03
02
01
00
0/
0.
0-
0,
0+
0*
0)
0(
1O
#1123032
0!
#1126878
1!
b1000010000110 8
1q
#1130000
1"
#1130724
0!
#1134570
1!
b1000010000111 8
0q
1p
#1138000
0&
#1138416
0!
#1140000
0"
#1142262
1!
b1000010001000 8
1q
#1146108
0!
#1149954
1!
b1000010001001 8
0q
0p
0o
1n
#1150000
1"
#1153800
0!
#1157646
1!
b1000010001010 8
1q
#1158000
1&
#1160000
0"
#1161492
0!
#1165338
1!
b1000010001011 8
0q
1p
#1169184
0!
#1170000
1"
#1173000
1$
z7
z6
z5
z4
z3
z2
z1
z0
z/
z.
z-
z,
z+
z*
z)
z(
0O
#1173030
1!
b1000010001100 8
1q
#1176876
0!
#1180000
0"
#1180722
1!
b1000010001101 8
0q
0p
1o
#1183000
0$
1%
0'
07
06
05
04
03
02
01
00
0/
0.
0-
0,
0+
0*
0)
0(
#1184568
0!
#1188414
1!
b1000010001110 8
1q
#1190000
1"
#1192260
0!
#1196106
1!
b1000010001111 8
0q
1p
#1199952
0!
#1200000
0"
#1203798
1!
b1000010010000 8
1q
#1207644
0!
#1210000
1"
#1211490
1!
b1000010010001 8
0q
0p
0o
0n
1m
#1213000
1'
z7
z6
z5
z4
z3
z2
z1
z0
z/
z.
z-
z,
z+
z*
z)
z(
#1215336
0!
#1219182
1!
b1000010010010 8
1q
#1220000
0"
#1223000
1$
#1223028
0!
#1226874
1!
b1000010010011 8
0q
1p
#1230000
1"
#1230720
0!
#1233000
0$
0%
17
06
05
04
03
02
01
00
0/
0.
0-
0,
0+
0*
0)
0(
1O
#1234566
1!
b1000010010100 8
1q
#1238412
0!
#1240000
0"
#1242258
1!
b1000010010101 8
0q
0p
1o
#1246104
0!
#1248000
0&
#1249950
1!
b1000010010110 8
1q
#1250000
1"
#1253796
0!
#1257642
1!
b1000010010111 8
0q
1p
#1260000
0"
#1261488
0!
#1265334
1!
b1000010011000 8
1q
#1268000
1&
1:
1a
1`
1_
1^
1]
1\
1[
1Z
#1269180
0!
#1270000
1"
#1273026
1!
b1000010011001 8
0q
0p
0o
1n
#1276872
0!
#1280000
0"
#1280718
1!
b1000010011010 8
1q
#1283000
1$
z7
z6
z5
z4
z3
z2
z1
z0
z/
z.
z-
z,
z+
z*
z)
z(
0O
#1284564
0!
#1288410
1!
b1000010011011 8
0q
1p
#1290000
1"
#1292256
0!
#1293000
0$
1%
0'
07
06
05
04
03
02
01
00
0/
0.
0-
0,
0+
0*
0)
0(
#1296102
1!
b1000010011100 8
1q
#1299948
0!
#1300000
0"
#1303794
1!
b1000010011101 8
0q
0p
1o
#1307640
0!
#1310000
1"
#1311486
1!
b1000010011110 8
1q
#1315332
0!
#1319178
1!
b1000010011111 8
0q
1p
#1320000
0"
#1323000
1'
z7
z6
z5
z4
z3
z2
z1
z0
z/
z.
z-
z,
z+
z*
z)
z(
#1323024
0!
#1326870
1!
b1000010100000 8
1q
#1330000
1"
#1330716
0!
#1333000
1$
#1334562
1!
b1000010100001 8
0q
0p
0o
0n
0m
1l
#1338408
0!
#1340000
0"
#1342254
1!
b1000010100010 8
1q
#1343000
0$
0%
17
06
05
04
03
02
01
00
0/
0.
0-
0,
0+
0*
0)
0(
1O
#1346100
0!
#1349946
1!
b1000010100011 8
0q
1p
#1350000
1"
#1353792
0!
#1357638
1!
b1000010100100 8
1q
#1358000
0&
#1360000
0"
#1361484
0!
#1365330
1!
b1000010100101 8
0q
0p
1o
#1369176
0!
#1370000
1"
#1373022
1!
b1000010100110 8
1q
#1376868
0!
#1378000
1&
b100 ;
b11111111 N
#1380000
0"
#1380714
1!
b1000010100111 8
0q
1p
#1384560
0!
#1388406
1!
b1000010101000 8
1q
#1390000
1"
#1392252
0!
#1393000
1$
z7
z6
z5
z4
z3
z2
z1
z0
z/
z.
z-
z,
z+
z*
z)
z(
0O
#1396098
1!
b1000010101001 8
0q
0p
0o
1n
#1399944
0!
#1400000
0"
#1403000
0$
1%
0'
17
16
15
14
13
12
11
10
0/
0.
0-
0,
0+
0*
0)
0(
#1403790
1!
b1000010101010 8
1q
#1407636
0!
#1410000
1"
#1411482
1!
b1000010101011 8
0q
1p
#1415328
0!
#1419174
1!
b1000010101100 8
1q
#1420000
0"
#1423020
0!
#1426866
1!
b1000010101101 8
0q
0p
1o
#1430000
1"
#1430712
0!
#1433000
1'
z7
z6
z5
z4
z3
z2
z1
z0
z/
z.
z-
z,
z+
z*
z)
z(
#1434558
1!
b1000010101110 8
1q
#1438404
0!
#1440000
0"
#1442250
1!
b1000010101111 8
0q
1p
#1443000
1$
#1446096
0!
#1449942
1!
b1000010110000 8
1q
#1450000
1"
#1453000
0$
0%
07
16
05
04
03
02
01
00
0/
0.
0-
0,
0+
0*
0)
0(
1P
1t
#1453788
0!
#1457634
1!
b1000010110001 8
0q
0p
0o
0n
1m
#1460000
0"
#1461480
0!
#1465326
1!
b1000010110010 8
1q
#1468000
0&
#1469172
0!
#1470000
1"
#1473018
1!
b1000010110011 8
0q
1p
#1476864
0!
#1480000
0"
#1480710
1!
b1000010110100 8
1q
#1484556
0!
#1488000
1&
b1 u
b10 M
b101 ;
b100 N
#1488402
1!
b1000010110101 8
0q
0p
1o
#1490000
1"
#1492248
0!
#1496094
1!
b1000010110110 8
1q
#1499940
0!
#1500000
0"
#1503000
1$
z7
z6
z5
z4
z3
z2
z1
z0
z/
z.
z-
z,
z+
z*
z)
z(
0P
0t
#1503786
1!
b1000010110111 8
0q
1p
#1507632
0!
#1510000
1"
#1511478
1!
b1000010111000 8
1q
#1513000
0$
1%
0'
07
06
15
04
03
02
01
00
0/
0.
0-
0,
0+
0*
0)
0(
#1515324
0!
#1519170
1!
b1000010111001 8
0q
0p
0o
1n
#1520000
0"
#1523016
0!
#1526862
1!
b1000010111010 8
1q
#1530000
1"
#1530708
0!
#1534554
1!
b1000010111011 8
0q
1p
#1538400
0!
#1540000
0"
#1542246
1!
b1000010111100 8
1q
#1543000
1'
z7
z6
z5
z4
z3
z2
z1
z0
z/
z.
z-
z,
z+
z*
z)
z(
#1546092
0!
#1549938
1!
b1000010111101 8
0q
0p
1o
#1550000
1"
#1553000
1$
#1553784
0!
#1557630
1!
b1000010111110 8
1q
#1560000
0"
#1561476
0!
#1563000
0$
0%
17
16
05
04
03
02
01
00
0/
0.
0-
0,
0+
0*
0)
0(
1Q
#1565322
1!
b1000010111111 8
0q
1p
#1569168
0!
#1570000
1"
#1573014
1!
b1000011000000 8
1q
#1576860
0!
#1578000
0&
#1580000
0"
#1580706
1!
b1000011000001 8
0q
0p
0o
0n
0m
0l
1k
#1584552
0!
#1588398
1!
b1000011000010 8
1q
#1590000
1"
#1592244
0!
#1596090
1!
b1000011000011 8
0q
1p
#1598000
1&
b1 <
b11 M
1@
b0 N
#1599936
0!
#1600000
0"
#1603782
1!
b1000011000100 8
1q
#1607628
0!
#1610000
1"
#1611474
1!
b1000011000101 8
0q
0p
1o
#1613000
1$
z7
z6
z5
z4
z3
z2
z1
z0
z/
z.
z-
z,
z+
z*
z)
z(
0Q
#1615320
0!
#1619166
1!
b1000011000110 8
1q
#1620000
0"
#1623000
0$
1%
0'
07
06
05
04
03
02
01
00
0/
0.
0-
0,
0+
0*
0)
0(
#1623012
0!
#1626858
1!
b1000011000111 8
0q
1p
#1630000
1"
#1630704
0!
#1634550
1!
b1000011001000 8
1q
#1638396
0!
#1640000
0"
#1642242
1!
b1000011001001 8
0q
0p
0o
1n
#1646088
0!
#1649934
1!
b1000011001010 8
1q
#1650000
1"
#1653000
1'
z7
z6
z5
z4
z3
z2
z1
z0
z/
z.
z-
z,
z+
z*
z)
z(
#1653780
0!
#1657626
1!
b1000011001011 8
0q
1p
#1660000
0"
#1661472
0!
#1663000
1$
#1665318
1!
b1000011001100 8
1q
#1669164
0!
#1670000
1"
#1673000
0$
0%
07
16
05
04
03
02
01
00
0/
0.
0-
0,
0+
0*
0)
0(
1P
1t
#1673010
1!
b1000011001101 8
0q
0p
1o
#1676856
0!
#1680000
0"
#1680702
1!
b1000011001110 8
1q
#1684548
0!
#1688000
0&
#1688394
1!
b1000011001111 8
0q
1p
#1690000
1"
#1692240
0!
#1696086
1!
b1000011010000 8
1q
#1699932
0!
#1700000
0"
#1703778
1!
b1000011010001 8
0q
0p
0o
0n
1m
#1707624
0!
#1708000
1&
b10 u
b110 ;
b10 M
b101 N
#1710000
1"
#1711470
1!
b1000011010010 8
1q
#1715316
0!
#1719162
1!
b1000011010011 8
0q
1p
#1720000
0"
#1723000
1$
z7
z6
z5
z4
z3
z2
z1
z0
z/
z.
z-
z,
z+
z*
z)
z(
0P
0t
#1723008
0!
#1726854
1!
b1000011010100 8
1q
#1730000
1"
#1730700
0!
#1733000
0$
1%
0'
17
06
15
04
03
02
01
00
0/
0.
0-
0,
0+
0*
0)
0(
#1734546
1!
b1000011010101 8
0q
0p
1o
#1738392
0!
#1740000
0"
#1742238
1!
b1000011010110 8
1q
#1746084
0!
#1749930
1!
b1000011010111 8
0q
1p
#1750000
1"
#1753776
0!
#1757622
1!
b1000011011000 8
1q
#1760000
0"
#1761468
0!
#1763000
1'
z7
z6
z5
z4
z3
z2
z1
z0
z/
z.
z-
z,
z+
z*
z)
z(
#1765314
1!
b1000011011001 8
0q
0p
0o
1n
#1769160
0!
#1770000
1"
#1773000
1$
#1773006
1!
b1000011011010 8
1q
#1776852
0!
#1780000
0"
#1780698
1!
b1000011011011 8
0q
1p
#1783000
0$
0%
17
16
05
04
03
02
01
00
0/
0.
0-
0,
0+
0*
0)
0(
1Q
#1784544
0!
#1788390
1!
b1000011011100 8
1q
#1790000
1"
#1792236
0!
#1796082
1!
b1000011011101 8
0q
0p
1o
#1798000
0&
#1799928
0!
#1800000
0"
#1803774
1!
b1000011011110 8
1q
#1807620
0!
#1810000
1"
#1811466
1!
b1000011011111 8
0q
1p
#1815312
0!
#1818000
1&
b10 <
b11 M
1L
b1000000000000 N
#1819158
1!
b1000011100000 8
1q
#1820000
0"
#1823004
0!
#1826850
1!
b1000011100001 8
0q
0p
0o
0n
0m
1l
#1830000
1"
#1830696
0!
#1833000
1$
z7
z6
z5
z4
z3
z2
z1
z0
z/
z.
z-
z,
z+
z*
z)
z(
0Q
#1834542
1!
b1000011100010 8
1q
#1838388
0!
#1840000
0"
#1842234
1!
b1000011100011 8
0q
1p
#1843000
0$
1%
0'
07
06
05
04
03
02
01
00
0/
0.
0-
0,
1+
0*
0)
0(
#1846080
0!
#1849926
1!
b1000011100100 8
1q
#1850000
1"
#1853772
0!
#1857618
1!
b1000011100101 8
0q
0p
1o
#1860000
0"
#1861464
0!
#1865310
1!
b1000011100110 8
1q
#1869156
0!
#1870000
1"
#1873000
1'
z7
z6
z5
z4
z3
z2
z1
z0
z/
z.
z-
z,
z+
z*
z)
z(
#1873002
1!
b1000011100111 8
0q
1p
#1876848
0!
#1880000
0"
#1880694
1!
b1000011101000 8
1q
#1883000
1$
#1884540
0!
#1888386
1!
b1000011101001 8
0q
0p
0o
1n
#1890000
1"
#1892232
0!
#1893000
0$
0%
07
16
05
04
03
02
01
00
0/
0.
0-
0,
0+
0*
0)
0(
1P
1t
#1896078
1!
b1000011101010 8
1q
#1899924
0!
#1900000
0"
#1903770
1!
b1000011101011 8
0q
1p
#1907616
0!
#1908000
0&
#1910000
1"
#1911462
1!
b1000011101100 8
1q
#1915308
0!
#1919154
1!
b1000011101101 8
0q
0p
1o
#1920000
0"
#1923000
0!
#1926846
1!
b1000011101110 8
1q
#1928000
1&
b11 u
b111 ;
b10 M
b110 N
#1930000
1"
#1930692
0!
#1934538
1!
b1000011101111 8
0q
1p
#1938384
0!
#1940000
0"
#1942230
1!
b1000011110000 8
1q
#1943000
1$
z7
z6
z5
z4
z3
z2
z1
z0
z/
z.
z-
z,
z+
z*
z)
z(
0P
0t
#1946076
0!
#1949922
1!
b1000011110001 8
0q
0p
0o
0n
1m
#1950000
1"
#1953000
0$
1%
0'
07
16
15
04
03
02
01
00
0/
0.
0-
0,
0+
0*
0)
0(
#1953768
0!
#1957614
1!
b1000011110010 8
1q
#1960000
0"
#1961460
0!
#1965306
1!
b1000011110011 8
0q
1p
#1969152
0!
#1970000
1"
#1972998
1!
b1000011110100 8
1q
#1976844
0!
#1980000
0"
#1980690
1!
b1000011110101 8
0q
0p
1o
#1983000
1'
z7
z6
z5
z4
z3
z2
z1
z0
z/
z.
z-
z,
z+
z*
z)
z(
#1984536
0!
#1988382
1!
b1000011110110 8
1q
#1990000
1"
#1992228
0!
#1993000
1$
#1996074
1!
b1000011110111 8
0q
1p
#1999920
0!
#2000000
0"
#2003000
0$
0%
17
16
05
04
03
02
01
00
0/
0.
0-
0,
0+
0*
0)
0(
1Q
#2003766
1!
b1000011111000 8
1q
#2007612
0!
#2010000
1"
#2011458
1!
b1000011111001 8
0q
0p
0o
1n
#2015304
0!
#2018000
0&
#2019150
1!
b1000011111010 8
1q
#2020000
0"
#2022996
0!
#2026842
1!
b1000011111011 8
0q
1p
#2030000
1"
#2030688
0!
#2034534
1!
b1000011111100 8
1q
#2038000
1&
b11 <
b11 M
0L
1K
b1000000000001 N
#2038380
0!
#2040000
0"
#2042226
1!
b1000011111101 8
0q
0p
1o
#2046072
0!
#2049918
1!
b1000011111110 8
1q
#2050000
1"
#2053000
1$
z7
z6
z5
z4
z3
z2
z1
z0
z/
z.
z-
z,
z+
z*
z)
z(
0Q
#2053764
0!
#2057610
1!
b1000011111111 8
0q
1p
#2060000
0"
#2061456
0!
#2063000
0$
1%
0'
17
06
05
04
03
02
01
00
0/
0.
0-
0,
1+
0*
0)
0(
#2065302
1!
b1000100000000 8
1q
#2069148
0!
#2070000
1"
#2072994
1!
b1000100000001 8
0q
0p
0o
0n
0m
0l
0k
0j
1i
#2076840
0!
#2080000
0"
#2080686
1!
b1000100000010 8
1q
#2084532
0!
#2088378
1!
b1000100000011 8
0q
1p
#2090000
1"
#2092224
0!
#2093000
1'
z7
z6
z5
z4
z3
z2
z1
z0
z/
z.
z-
z,
z+
z*
z)
z(
#2096070
1!
b1000100000100 8
1q
#2099916
0!
#2100000
0"
#2103000
1$
#2103762
1!
b1000100000101 8
0q
0p
1o
#2107608
0!
#2110000
1"
#2111454
1!
b1000100000110 8
1q
#2113000
0$
0%
07
16
05
04
03
02
01
00
0/
0.
0-
0,
0+
0*
0)
0(
1P
1t
#2115300
0!
#2119146
1!
b1000100000111 8
0q
1p
#2120000
0"
#2122992
0!
#2126838
1!
b1000100001000 8
1q
#2128000
0&
#2130000
1"
#2130684
0!
#2134530
1!
b1000100001001 8
0q
0p
0o
1n
#2138376
0!
#2140000
0"
#2142222
1!
b1000100001010 8
1q
#2146068
0!
